<svg viewBox="0 0 80 80" fill="none" xmlns="http://www.w3.org/2000/svg">
<path d="M70.6358 36.8434L70.1099 36.547V22.9693C70.1074 21.5195 69.5304 20.1299 68.5052 19.1047C67.4801 18.0796 66.0904 17.5025 64.6406 17.5H15.3976C13.9487 17.5025 12.56 18.0799 11.5364 19.1053C10.5128 20.1307 9.93784 21.5204 9.93784 22.9693V36.5279L9.41195 36.8243C7.77259 37.7708 6.41011 39.1306 5.46047 40.7681C4.51084 42.4057 4.00727 44.2636 4 46.1566V52.0753C4 52.3745 4.11887 52.6615 4.33047 52.8731C4.54206 53.0847 4.82904 53.2036 5.12828 53.2036H8.32191V57.4872C8.2932 58.1248 8.39399 58.7615 8.61818 59.359C8.84237 59.9565 9.18532 60.5024 9.62632 60.9637C10.0673 61.425 10.5972 61.7922 11.184 62.043C11.7709 62.2939 12.4024 62.4232 13.0406 62.4232C13.6788 62.4232 14.3104 62.2939 14.8972 62.043C15.484 61.7922 16.0139 61.425 16.4549 60.9637C16.8959 60.5024 17.2389 59.9565 17.4631 59.359C17.6873 58.7615 17.7881 58.1248 17.7594 57.4872V53.2036H62.2502V57.4872C62.2215 58.1248 62.3222 58.7615 62.5464 59.359C62.7706 59.9565 63.1136 60.5024 63.5546 60.9637C63.9956 61.425 64.5255 61.7922 65.1123 62.043C65.6991 62.2939 66.3307 62.4232 66.9689 62.4232C67.6071 62.4232 68.2386 62.2939 68.8255 62.043C69.4123 61.7922 69.9422 61.425 70.3832 60.9637C70.8242 60.5024 71.1672 59.9565 71.3913 59.359C71.6155 58.7615 71.7163 58.1248 71.6876 57.4872V53.2036H74.8812C75.029 53.2036 75.1752 53.1743 75.3116 53.1175C75.4479 53.0607 75.5717 52.9774 75.6757 52.8725C75.7797 52.7676 75.8619 52.6432 75.9176 52.5063C75.9732 52.3695 76.0012 52.223 76 52.0753V46.1566C75.9952 44.2713 75.4977 42.4201 74.5567 40.7865C73.6158 39.1528 72.2641 37.7935 70.6358 36.8434ZM12.1466 22.9693C12.1453 22.5434 12.2287 22.1214 12.392 21.728C12.5553 21.3346 12.7952 20.9776 13.0977 20.6777C13.4002 20.3779 13.7593 20.1412 14.1542 19.9814C14.549 19.8216 14.9717 19.7419 15.3976 19.747H64.6406C65.4961 19.747 66.3167 20.0862 66.9225 20.6902C67.5283 21.2942 67.8699 22.1138 67.8725 22.9693V35.6673L66.6773 35.5048C66.214 35.4484 65.7479 35.4197 65.2812 35.4187H63.0533L63.3785 34.1088C63.4842 33.6833 63.5388 33.2467 63.541 32.8083V31.5653C63.5385 30.1282 62.9665 28.7507 61.9503 27.7345C60.9341 26.7183 59.5566 26.1464 58.1195 26.1438H47.1809C45.7446 26.1464 44.3681 26.7187 43.3534 27.7351C42.3388 28.7516 41.7689 30.1291 41.7689 31.5653V32.8083C41.7673 33.2464 41.8186 33.683 41.9219 34.1088L42.247 35.4187H37.7721L38.0876 34.1088C38.1934 33.6833 38.2479 33.2467 38.2502 32.8083V31.5653C38.2502 30.1274 37.679 28.7485 36.6623 27.7317C35.6455 26.715 34.2665 26.1438 32.8287 26.1438H21.8996C20.4617 26.1438 19.0827 26.715 18.066 27.7317C17.0493 28.7485 16.4781 30.1274 16.4781 31.5653V32.8083C16.4797 33.2468 16.5342 33.6834 16.6406 34.1088L16.9657 35.4187H14.7283C14.2617 35.4199 13.7955 35.4487 13.3323 35.5048L12.1466 35.6673V22.9693ZM61.294 31.5749V32.8179C61.2937 33.2549 61.2025 33.6871 61.0264 34.0871C60.8503 34.4871 60.593 34.8461 60.2709 35.1414L59.9745 35.4283H45.3354L45.0295 35.1414C44.7073 34.8461 44.45 34.4871 44.2739 34.0871C44.0978 33.6871 44.0067 33.2549 44.0064 32.8179V31.5749C44.0063 30.7321 44.3405 29.9237 44.9356 29.3268C45.5306 28.7299 46.338 28.3933 47.1809 28.3908H58.1195C58.9606 28.3933 59.7666 28.7286 60.3614 29.3234C60.9562 29.9182 61.2915 30.7242 61.294 31.5653V31.5749ZM36.0127 31.5749V32.8179C36.0124 33.2549 35.9213 33.6871 35.7452 34.0871C35.569 34.4871 35.3118 34.8461 34.9896 35.1414L34.6836 35.4283H20.0446L19.7386 35.1414C19.4187 34.8449 19.1635 34.4854 18.9891 34.0856C18.8147 33.6857 18.7248 33.2541 18.7251 32.8179V31.5749C18.7251 30.7321 19.0592 29.9237 19.6543 29.3268C20.2494 28.7299 21.0568 28.3933 21.8996 28.3908H32.8287C33.6707 28.3933 34.4777 28.7283 35.074 29.3228C35.6703 29.9173 36.0077 30.7233 36.0127 31.5653V31.5749ZM15.4837 57.5064C15.4837 58.1632 15.2227 58.793 14.7583 59.2575C14.2939 59.7219 13.664 59.9828 13.0072 59.9828C12.3504 59.9828 11.7205 59.7219 11.256 59.2575C10.7916 58.793 10.5307 58.1632 10.5307 57.5064V53.2227H15.4837V57.5064ZM69.4788 57.5064C69.4788 58.1632 69.2179 58.793 68.7535 59.2575C68.2891 59.7219 67.6592 59.9828 67.0024 59.9828C66.3456 59.9828 65.7156 59.7219 65.2512 59.2575C64.7868 58.793 64.5259 58.1632 64.5259 57.5064V53.2227H69.4788V57.5064ZM73.8008 50.9757H6.21833V46.1948C6.22085 43.9377 7.11794 41.7737 8.71304 40.1768C10.3081 38.5799 12.4712 37.6804 14.7283 37.6753H65.2812C67.54 37.6778 69.7055 38.5762 71.3027 40.1734C72.8998 41.7705 73.7982 43.936 73.8008 46.1948V50.9757Z" fill="black"/>
</svg>
