<svg  viewBox="0 0 80 80" fill="none" xmlns="http://www.w3.org/2000/svg">
<path d="M40.1107 41.8112C41.0165 41.8112 41.7507 41.077 41.7507 40.1712C41.7507 39.2655 41.0165 38.5312 40.1107 38.5312C39.205 38.5312 38.4707 39.2655 38.4707 40.1712C38.4707 41.077 39.205 41.8112 40.1107 41.8112Z" fill="black"/>
<path fill-rule="evenodd" clip-rule="evenodd" d="M40.0995 29.1484C37.924 29.1484 35.7973 29.7936 33.9883 31.0023C32.1794 32.211 30.7695 33.9289 29.9369 35.9389C29.1044 37.9489 28.8865 40.1606 29.311 42.2944C29.7354 44.4282 30.783 46.3882 32.3213 47.9266C33.8597 49.465 35.8198 50.5126 37.9536 50.9371C40.0873 51.3615 42.2992 51.1437 44.3091 50.3111C46.3191 49.4785 48.0371 48.0686 49.2458 46.2597C50.4545 44.4507 51.0995 42.324 51.0995 40.1484C51.0995 37.231 49.9406 34.4332 47.8777 32.3703C45.8148 30.3074 43.0169 29.1484 40.0995 29.1484ZM40.0995 47.8984C38.5707 47.8984 37.0762 47.4451 35.805 46.5957C34.5338 45.7463 33.543 44.539 32.9579 43.1266C32.3729 41.7141 32.2199 40.1599 32.5181 38.6604C32.8164 37.1609 33.5525 35.7836 34.6336 34.7025C35.7147 33.6214 37.092 32.8852 38.5915 32.587C40.091 32.2887 41.6452 32.4418 43.0577 33.0268C44.4702 33.6119 45.6774 34.6027 46.5268 35.8739C47.3762 37.1451 47.8295 38.6396 47.8295 40.1684C47.8295 42.2195 47.0155 44.1866 45.5661 45.6379C44.1167 47.0891 42.1506 47.9058 40.0995 47.9084V47.8984Z" fill="black"/>
<path fill-rule="evenodd" clip-rule="evenodd" d="M67.4992 50.4282C68.9814 50.1561 70.512 50.4183 71.8192 51.1682L71.8292 51.2182C72.7134 51.7277 73.4613 52.4435 74.0092 53.3045C74.5571 54.1655 74.8887 55.1461 74.9758 56.1629C75.0628 57.1797 74.9027 58.2025 74.5091 59.1441C74.1155 60.0856 73.5002 60.9181 72.7154 61.5705C71.9306 62.2229 70.9998 62.6758 70.0021 62.8908C69.0045 63.1058 67.9697 63.0763 66.9859 62.805C66.0021 62.5337 65.0985 62.0286 64.3521 61.3326C63.6057 60.6367 63.0386 59.7706 62.6992 58.8082L62.5392 58.3482H50.5392L44.5392 68.6982L44.8592 69.0782C45.6494 69.9985 46.1591 71.1261 46.3277 72.3274C46.4963 73.5286 46.3167 74.753 45.8104 75.8552C45.304 76.9574 44.4921 77.8913 43.4709 78.5459C42.4497 79.2006 41.2622 79.5486 40.0493 79.5486C38.8363 79.5486 37.6487 79.2006 36.6275 78.5459C35.6063 77.8913 34.7944 76.9574 34.288 75.8552C33.7817 74.753 33.6021 73.5286 33.7707 72.3274C33.9393 71.1261 34.449 69.9985 35.2392 69.0782L35.5692 68.6982L29.5692 58.3482H17.5691L17.4092 58.8082C17.0064 59.9494 16.2849 60.9511 15.3303 61.6948C14.3756 62.4385 13.2278 62.893 12.0228 63.0044C10.8177 63.1157 9.60599 62.8793 8.53119 62.3232C7.45639 61.7671 6.56357 60.9145 5.95843 59.8665C5.35329 58.8186 5.06124 57.6191 5.11688 56.4102C5.17251 55.2013 5.57344 54.0337 6.27228 53.0458C6.97111 52.0578 7.93854 51.2908 9.05987 50.8358C10.1812 50.3807 11.4095 50.2567 12.5992 50.4782L13.0792 50.5682L19.0792 40.2182L13.0792 29.8582L12.5992 29.9482C11.033 30.2442 9.41288 29.9364 8.06427 29.0868C6.71566 28.2372 5.73845 26.9087 5.32916 25.3682C5.10969 24.5665 5.0524 23.729 5.16058 22.9048C5.26876 22.0806 5.54022 21.2862 5.95916 20.5682C6.55959 19.5189 7.44801 18.6635 8.51922 18.1032C9.59044 17.5428 10.7997 17.3009 12.0041 17.4061C13.2084 17.5113 14.3574 17.9591 15.3152 18.6967C16.2731 19.4343 16.9998 20.4308 17.4092 21.5682L17.5691 22.0382H29.5692L35.5692 11.6782L35.2392 11.3082C34.4526 10.3887 33.946 9.26299 33.7795 8.06442C33.6129 6.86585 33.7935 5.64466 34.2996 4.54552C34.8058 3.44638 35.6163 2.51536 36.6353 1.86275C37.6543 1.21013 38.8392 0.863281 40.0493 0.863281C41.2593 0.863281 42.444 1.21013 43.4631 1.86275C44.4821 2.51536 45.2927 3.44638 45.7989 4.54552C46.305 5.64466 46.4856 6.86585 46.319 8.06442C46.1525 9.26299 45.6458 10.3887 44.8592 11.3082L44.5392 11.6782L50.5392 22.0382H62.5392L62.6992 21.5682C63.2046 20.1492 64.1968 18.9551 65.4992 18.1982C66.3829 17.687 67.3771 17.397 68.397 17.3531C69.417 17.3093 70.4324 17.5127 71.3568 17.9462C72.2811 18.3796 73.0868 19.0302 73.7053 19.8424C74.3238 20.6546 74.7366 21.6044 74.9086 22.6107C75.0807 23.617 75.0067 24.65 74.6932 25.6216C74.3796 26.5931 73.8357 27.4744 73.1078 28.1903C72.38 28.9061 71.4899 29.4353 70.5132 29.7327C69.5366 30.0301 68.5025 30.0869 67.4992 29.8982L67.0192 29.8082L61.0192 40.1682L67.0192 50.5182L67.4992 50.4282ZM68.6392 20.6382C68.1085 20.6389 67.5874 20.7804 67.1292 21.0482H67.1192C66.4986 21.3568 66.004 21.8707 65.7194 22.5027C65.4348 23.1346 65.3778 23.8456 65.558 24.5148C65.7383 25.1841 66.1447 25.7702 66.7082 26.1737C67.2717 26.5772 67.9576 26.7732 68.6492 26.7282C69.1827 26.7246 69.7063 26.5834 70.1693 26.3182C70.5175 26.1203 70.8225 25.8546 71.0663 25.5369C71.3102 25.2191 71.488 24.8558 71.5892 24.4682C71.6942 24.082 71.7209 23.6786 71.6677 23.2819C71.6144 22.8852 71.4824 22.5031 71.2792 22.1582C71.015 21.6922 70.6307 21.3055 70.1664 21.0382C69.7022 20.7709 69.1749 20.6328 68.6392 20.6382ZM13.0726 26.3214C13.5359 26.0546 13.9209 25.6708 14.1891 25.2082C14.395 24.8632 14.5296 24.4803 14.5847 24.0822C14.6397 23.6842 14.6143 23.2792 14.5098 22.8912C14.4054 22.5032 14.224 22.1401 13.9765 21.8235C13.729 21.5069 13.4205 21.2433 13.0691 21.0482C12.6109 20.7804 12.0899 20.6389 11.5591 20.6382C10.8675 20.5933 10.1817 20.7893 9.61822 21.1927C9.05471 21.5962 8.64834 22.1824 8.46808 22.8516C8.28781 23.5209 8.34473 24.2319 8.62933 24.8638C8.91393 25.4958 9.40863 26.0097 10.0292 26.3182C10.4904 26.5878 11.0151 26.7293 11.5493 26.7282C12.0839 26.7285 12.6092 26.5882 13.0726 26.3214ZM10.7767 59.5771C11.5521 59.79 12.3803 59.6861 13.0792 59.2882C13.4288 59.0916 13.7363 58.828 13.9839 58.5123C14.2316 58.1967 14.4145 57.8353 14.5223 57.4489C14.63 57.0625 14.6604 56.6586 14.6119 56.2604C14.5633 55.8622 14.4367 55.4774 14.2392 55.1282C14.0433 54.7778 13.7791 54.4702 13.4621 54.2237C13.1451 53.9773 12.7819 53.7969 12.394 53.6934C12.006 53.5899 11.6013 53.5653 11.2037 53.6211C10.8061 53.6769 10.4236 53.8119 10.0792 54.0182C9.38031 54.416 8.86819 55.0752 8.65533 55.8507C8.44248 56.6261 8.54633 57.4544 8.94415 58.1532C9.34198 58.8521 10.0012 59.3643 10.7767 59.5771ZM41.7459 4.65382C41.2572 4.32726 40.6833 4.15154 40.0958 4.14829C39.3027 4.15939 38.5449 4.47801 37.9821 5.03706C37.4185 5.59692 37.0947 6.354 37.0792 7.14824C37.0792 7.74158 37.2551 8.32159 37.5848 8.81494C37.9144 9.30829 38.3829 9.69281 38.9311 9.91988C39.4793 10.1469 40.0825 10.2063 40.6645 10.0906C41.2464 9.97484 41.7809 9.6891 42.2005 9.26955C42.6201 8.84999 42.9058 8.31545 43.0215 7.73351C43.1373 7.15156 43.0779 6.54836 42.8509 6.00018C42.6238 5.452 42.2393 4.98347 41.7459 4.65382ZM38.4125 75.6426C38.9059 75.9723 39.4858 76.1482 40.0792 76.1482L40.0992 76.1782C40.8924 76.16 41.6474 75.8334 42.2038 75.2677C42.7602 74.702 43.0742 73.9417 43.0792 73.1482C43.0792 72.5549 42.9033 71.9749 42.5737 71.4815C42.244 70.9882 41.7754 70.6037 41.2272 70.3766C40.6791 70.1495 40.0759 70.0901 39.494 70.2059C38.912 70.3216 38.3774 70.6074 37.9578 71.0269C37.5383 71.4465 37.2527 71.981 37.1369 72.563C37.0211 73.1449 37.0805 73.7481 37.3076 74.2963C37.5346 74.8445 37.9192 75.313 38.4125 75.6426ZM63.1492 53.4582C63.3451 53.1206 63.5728 52.8025 63.8292 52.5082L64.1492 52.1282L57.6992 40.9582C57.5522 40.7099 57.4748 40.4268 57.4748 40.1382C57.4748 39.8497 57.5522 39.5665 57.6992 39.3182L64.1492 28.1382L63.8292 27.7682C63.5773 27.4703 63.35 27.1527 63.1492 26.8182C62.9572 26.4803 62.7965 26.1255 62.6692 25.7582L62.4992 25.2982H49.5992C49.3106 25.2962 49.0275 25.2184 48.7784 25.0728C48.5292 24.9271 48.3227 24.7187 48.1793 24.4682L41.7292 13.2982L41.2392 13.3882C40.476 13.5332 39.6924 13.5332 38.9293 13.3882L38.4391 13.2982L31.9892 24.4682C31.8458 24.7187 31.6391 24.9271 31.39 25.0728C31.1408 25.2184 30.8578 25.2962 30.5692 25.2982H17.6692L17.4992 25.7582C17.3696 26.1246 17.2091 26.4792 17.0192 26.8182C16.8233 27.1558 16.5956 27.4739 16.3392 27.7682L16.0192 28.1382L22.4692 39.3182C22.6161 39.5665 22.6937 39.8497 22.6937 40.1382C22.6937 40.4268 22.6161 40.7099 22.4692 40.9582L16.0192 52.1282L16.3392 52.5082C16.5924 52.8051 16.8199 53.1228 17.0192 53.4582C17.209 53.7938 17.3696 54.1451 17.4992 54.5082L17.6692 54.9782H30.5692C30.857 54.9783 31.1398 55.0541 31.3891 55.198C31.6384 55.342 31.8453 55.549 31.9892 55.7982L38.4391 66.9682L38.9293 66.8782C39.6929 66.7381 40.4756 66.7381 41.2392 66.8782L41.7292 66.9682L48.1793 55.7982C48.3232 55.549 48.5301 55.342 48.7794 55.198C49.0286 55.0541 49.3113 54.9783 49.5992 54.9782H62.4992L62.6692 54.5082C62.7965 54.1442 62.9572 53.7927 63.1492 53.4582ZM70.4879 59.0354C70.8056 58.7915 71.0713 58.4865 71.2692 58.1382V58.1182C71.5493 57.6585 71.7005 57.1318 71.707 56.5935C71.7134 56.0551 71.5749 55.525 71.306 55.0586C71.037 54.5923 70.6475 54.2069 70.1783 53.9429C69.7091 53.6789 69.1774 53.546 68.6392 53.5582C67.8436 53.6617 67.1216 54.0769 66.6321 54.7127C66.1427 55.3484 65.9258 56.1526 66.0292 56.9482C66.1327 57.7439 66.5479 58.4659 67.1837 58.9553C67.4984 59.1977 67.8579 59.3757 68.2415 59.4791C68.6251 59.5826 69.0253 59.6094 69.4193 59.5582C69.8068 59.457 70.1701 59.2793 70.4879 59.0354Z" fill="black"/>
</svg>
