<svg viewBox="0 0 80 80" fill="none" xmlns="http://www.w3.org/2000/svg">
<path fill-rule="evenodd" clip-rule="evenodd" d="M43.8712 62.2066H18.8614C18.7145 62.2066 18.5691 62.1777 18.4335 62.1215C18.2978 62.0653 18.1746 61.9829 18.0708 61.8791C17.9669 61.7753 17.8845 61.652 17.8284 61.5164C17.7722 61.3807 17.7433 61.2353 17.7433 61.0885V36.0787C17.742 35.8576 17.8068 35.6412 17.9294 35.4573C18.052 35.2734 18.2268 35.1304 18.4313 35.0465C18.5678 34.9904 18.7138 34.9612 18.8614 34.9605C19.158 34.9612 19.4427 35.0778 19.6546 35.2854L44.6644 60.2953C44.819 60.4538 44.9239 60.6539 44.9664 60.8712C45.0088 61.0885 44.9869 61.3135 44.9033 61.5185C44.8195 61.723 44.6764 61.8978 44.4925 62.0204C44.3086 62.1431 44.0923 62.2079 43.8712 62.2066ZM41.2144 59.9703L19.9795 38.7641V59.9703H41.2144Z" fill="black"/>
<path fill-rule="evenodd" clip-rule="evenodd" d="M6.33128 3.82492C6.11938 3.6173 5.83472 3.50071 5.53806 3.5C5.39051 3.50074 5.24448 3.52994 5.10799 3.58601C4.90347 3.66984 4.72874 3.81291 4.60613 3.99682C4.48352 4.18073 4.41867 4.39708 4.41994 4.61811V74.3819C4.41994 74.6784 4.53777 74.9628 4.74746 75.1725C4.95715 75.3822 5.24151 75.5 5.53806 75.5H75.3018C75.5229 75.4991 75.7388 75.4327 75.9221 75.3092C76.1055 75.1857 76.2481 75.0106 76.332 74.8061C76.4158 74.6015 76.4372 74.3767 76.3933 74.16C76.3494 73.9433 76.2423 73.7445 76.0855 73.5887L6.33128 3.82492ZM59.0746 73.2924V69.9189C59.0487 69.6389 58.9193 69.3788 58.7115 69.1893C58.5038 68.9999 58.2328 68.8949 57.9517 68.8949C57.6706 68.8949 57.3996 68.9999 57.1918 69.1893C56.9841 69.3788 56.8546 69.6389 56.8288 69.9189V73.2924H50.3875V69.9189C50.3617 69.6389 50.2322 69.3788 50.0245 69.1893C49.8168 68.9999 49.5458 68.8949 49.2646 68.8949C48.9835 68.8949 48.7125 68.9999 48.5048 69.1893C48.2971 69.3788 48.1676 69.6389 48.1417 69.9189V73.2924H41.7005V69.9189C41.6747 69.6389 41.5452 69.3788 41.3374 69.1893C41.1297 68.9999 40.8588 68.8949 40.5776 68.8949C40.2965 68.8949 40.0255 68.9999 39.8178 69.1893C39.6101 69.3788 39.4805 69.6389 39.4547 69.9189V73.2924H33.0135V69.9189C32.9876 69.6389 32.8582 69.3788 32.6505 69.1893C32.4427 68.9999 32.1717 68.8949 31.8906 68.8949C31.6095 68.8949 31.3385 68.9999 31.1307 69.1893C30.923 69.3788 30.7936 69.6389 30.7677 69.9189V73.2924H24.3265V69.9189C24.3007 69.6389 24.1711 69.3788 23.9634 69.1893C23.7557 68.9999 23.4847 68.8949 23.2036 68.8949C22.9225 68.8949 22.6515 68.9999 22.4438 69.1893C22.236 69.3788 22.1065 69.6389 22.0807 69.9189V73.2924H15.6395V69.9189C15.6136 69.6389 15.4842 69.3788 15.2764 69.1893C15.0687 68.9999 14.7977 68.8949 14.5166 68.8949C14.2354 68.8949 13.9644 68.9999 13.7567 69.1893C13.549 69.3788 13.4195 69.6389 13.3937 69.9189V73.2924H6.704V62.2067H10.2209C10.5174 62.2067 10.8018 62.0889 11.0115 61.8792C11.2212 61.6695 11.339 61.3851 11.339 61.0885C11.339 60.792 11.2212 60.5076 11.0115 60.2979C10.8018 60.0882 10.5174 59.9704 10.2209 59.9704H6.704V49.1809H10.2209C10.5008 49.1551 10.7609 49.0256 10.9504 48.8179C11.1398 48.6101 11.2448 48.3391 11.2448 48.058C11.2448 47.7769 11.1398 47.5059 10.9504 47.2981C10.7609 47.0904 10.5008 46.9609 10.2209 46.9351H6.704V36.1456H10.2209C10.5174 36.1456 10.8018 36.0278 11.0115 35.8181C11.2212 35.6084 11.339 35.324 11.339 35.0275C11.339 34.7309 11.2212 34.4465 11.0115 34.2368C10.8018 34.0272 10.5174 33.9094 10.2209 33.9094H6.704V23.1199H10.2209C10.5008 23.094 10.7609 22.9645 10.9504 22.7568C11.1398 22.5491 11.2448 22.2781 11.2448 21.9969C11.2448 21.7158 11.1398 21.4448 10.9504 21.2371C10.7609 21.0294 10.5008 20.8999 10.2209 20.874H6.704V7.32267L72.6451 73.2637L59.0746 73.2924Z" fill="black"/>
<path fill-rule="evenodd" clip-rule="evenodd" d="M70.1893 36.1082C70.1335 36.003 70.0626 35.9064 69.979 35.8215L39.3021 5.10636C38.2672 4.13563 36.8954 3.60534 35.4767 3.6276C34.0579 3.64985 32.7034 4.22291 31.6994 5.22562C30.6955 6.22833 30.1208 7.58214 30.0968 9.00087C30.0728 10.4196 30.6013 11.792 31.5708 12.8281L62.2382 43.5433C62.3255 43.6239 62.4217 43.6945 62.5248 43.7536L74.8147 49.8985C75.0256 50.0058 75.2651 50.0435 75.4988 50.006C75.7325 49.9686 75.9482 49.858 76.115 49.6901C76.2818 49.5223 76.391 49.3058 76.427 49.0719C76.463 48.838 76.4238 48.5988 76.3151 48.3886L70.1893 36.1082ZM33.119 11.2609C32.8159 10.9648 32.5751 10.6109 32.411 10.2203C32.2468 9.82965 32.1627 9.4101 32.1633 8.98637C32.1652 8.34947 32.3553 7.72735 32.7097 7.1982C33.0642 6.66905 33.5672 6.25648 34.1555 6.01239C34.7438 5.7683 35.3911 5.70356 36.016 5.82632C36.641 5.94908 37.2157 6.25387 37.6679 6.70234L39.9424 8.98637L35.3934 13.5449L33.119 11.2609ZM60.3268 38.4878L37.7253 15.829L36.9799 15.0931L41.5384 10.5345L67.5994 36.5861L63.0409 41.1446L60.3268 38.4878ZM64.9044 42.4443L68.8514 38.4974L72.7887 46.3912L64.9044 42.4443Z" fill="black"/>
</svg>
