<svg viewBox="0 0 80 80" fill="none" xmlns="http://www.w3.org/2000/svg">
<path fill-rule="evenodd" clip-rule="evenodd" d="M61.3694 24.6801C63.1503 27.9304 64.135 31.5567 64.2429 35.2614C64.3508 38.966 63.5787 42.6435 61.9899 45.9919C60.401 49.3403 58.0409 52.2643 55.103 54.5238C52.1652 56.7833 48.7334 58.3139 45.0893 58.9901C44.702 59.0598 44.353 59.2673 44.1067 59.5742C43.8604 59.8812 43.7335 60.2669 43.7494 60.6601C43.8234 61.8815 44.0416 63.0899 44.3994 64.2601C44.8764 66.6614 46.281 68.7778 48.3085 70.1501C50.336 71.5223 52.8228 72.0398 55.2294 71.5901C56.4397 71.4817 57.6341 71.2368 58.7894 70.8601C59.1262 70.7455 59.4165 70.5246 59.6167 70.2306C59.8169 69.9366 59.9162 69.5854 59.8994 69.2301C59.8149 68.0165 59.5969 66.8159 59.2494 65.6501C58.6627 63.2927 57.2774 61.2114 55.3293 59.7601L54.3293 59.1101L55.2193 58.4801C56.1806 57.877 57.0994 57.2088 57.9693 56.4801L58.3794 56.1401L58.8193 56.4401C59.4315 56.8627 60.0694 57.2468 60.7294 57.5901C62.7985 58.8989 65.2999 59.34 67.6919 58.8178C70.0839 58.2956 72.174 56.8521 73.5094 54.8001C74.266 53.8525 74.9133 52.8227 75.4393 51.7301C75.5902 51.4068 75.6309 51.0429 75.555 50.6942C75.4792 50.3456 75.291 50.0315 75.0194 49.8001C74.0961 49.0249 73.09 48.3542 72.0194 47.8001C70.34 46.8881 68.4605 46.407 66.5494 46.4001H65.5494L65.9294 45.4001C66.329 44.3281 66.663 43.2327 66.9294 42.1201L67.0693 41.5501H69.2294C71.6711 41.7326 74.0861 40.9426 75.948 39.3523C77.8099 37.762 78.9678 35.5004 79.1694 33.0601C79.3932 31.8639 79.4771 30.6457 79.4194 29.4301C79.3976 29.0751 79.2609 28.7368 79.03 28.4662C78.7991 28.1957 78.4865 28.0075 78.1394 27.9301C76.9488 27.6863 75.7343 27.5789 74.5194 27.6101C72.1717 27.5555 69.872 28.2799 67.9794 29.6701L67.1294 30.3601L66.8594 29.3001C66.5138 27.959 66.0693 26.6454 65.5294 25.3701L65.2594 24.7401L65.8894 24.4601L66.7093 24.0701C68.9847 23.1612 70.809 21.3902 71.7848 19.1426C72.7606 16.8951 72.809 14.3531 71.9194 12.0701C71.5856 10.9022 71.1296 9.77259 70.5593 8.70009C70.4134 8.44739 70.2035 8.23761 69.9507 8.09189C69.6979 7.94617 69.4112 7.86967 69.1194 7.87009C68.9931 7.8558 68.8656 7.8558 68.7394 7.87009C67.5662 8.18117 66.4297 8.61699 65.3493 9.17009C63.0756 10.0813 61.2525 11.852 60.2754 14.0983C59.2982 16.3445 59.2458 18.8854 60.1294 21.1701C60.4194 22.3801 60.835 23.5564 61.3694 24.6801ZM56.2994 67.3701L56.4794 68.1001L55.7294 68.2201C55.0969 68.3136 54.4587 68.3638 53.8193 68.3701C52.5236 68.4108 51.2454 68.0625 50.1494 67.3701C48.5194 66.2701 47.7193 64.1201 47.3493 62.5101L47.1893 61.8501L48.0194 61.6301C49.6294 61.4001 51.8794 61.3501 53.4894 62.4401C55.0994 63.5301 55.9094 65.7501 56.2894 67.3701H56.2994ZM67.5793 37.6001C67.7793 35.9501 68.3293 33.7101 69.8293 32.4301C71.3293 31.1501 73.6194 30.9601 75.2794 31.0201H76.0394L75.9493 31.7701C75.7493 33.4201 75.1993 35.6601 73.6993 36.9401C72.2721 37.9587 70.54 38.4596 68.7894 38.3601H67.4894L67.5793 37.6001ZM65.6694 49.7701C67.5994 49.3501 69.6694 50.2701 71.1494 51.1101L71.7994 51.4901L71.3594 52.1101C70.3594 53.4701 68.8693 55.1801 66.9393 55.6001C66.6103 55.6678 66.2752 55.7013 65.9393 55.7001C64.3556 55.6082 62.8212 55.1162 61.4794 54.2701L60.8293 53.8801L61.2694 53.2601C62.1994 51.9101 63.7394 50.1901 65.6594 49.7701H65.6694ZM63.1893 15.5801C63.9693 13.7701 65.9493 12.5801 67.4593 11.9201L68.1594 11.6101L68.4094 12.3301C68.9494 13.9001 69.4094 16.1501 68.6494 17.9601C67.8894 19.7701 65.8894 20.9601 64.3694 21.6101L63.6794 21.9201L63.4294 21.2001C62.8694 19.6301 62.3694 17.3801 63.1794 15.5801H63.1893Z" fill="black"/>
<path fill-rule="evenodd" clip-rule="evenodd" d="M40.0197 53.7194C43.5667 53.7214 47.0346 52.6712 49.9847 50.7018C52.9348 48.7324 55.2346 45.9322 56.5929 42.6555C57.9512 39.3788 58.3071 35.7729 57.6156 32.2939C56.9241 28.8149 55.2162 25.6191 52.708 23.111C50.1999 20.6028 47.0042 18.8949 43.5252 18.2034C40.0461 17.5119 36.4402 17.8678 33.1635 19.2261C29.8868 20.5845 27.0866 22.8841 25.1172 25.8342C23.1478 28.7843 22.0976 32.2523 22.0996 35.7994C22.1049 40.5504 23.9946 45.1054 27.3541 48.4649C30.7136 51.8244 35.2686 53.7141 40.0197 53.7194ZM34.0197 49.1594C31.8212 48.1793 29.8987 46.6717 28.4229 44.7702C26.947 42.8687 25.9635 40.6323 25.5596 38.2594L25.4196 37.4394H33.2496V38.1094C33.3448 41.4045 33.8589 44.6741 34.7796 47.8394C34.8191 47.9829 34.8693 48.1233 34.9296 48.2594L35.5996 49.8794L34.0197 49.1594ZM54.4197 38.2594C54.0158 40.6323 53.0322 42.8687 51.5564 44.7702C50.0806 46.6717 48.1581 48.1793 45.9596 49.1594L44.3696 49.9094L45.0397 48.2894C45.1 48.1533 45.1501 48.0129 45.1896 47.8694C46.1095 44.7039 46.6236 41.4344 46.7196 38.1394V37.4694H54.5596L54.4197 38.2594ZM45.9097 22.4094C48.1217 23.3849 50.0571 24.8941 51.5424 26.8017C53.0276 28.7093 54.0163 30.9557 54.4197 33.3394L54.5596 34.1494H46.7196V33.4794C46.6246 30.2112 46.1138 26.9685 45.1996 23.8294C45.1467 23.6589 45.0833 23.4919 45.0096 23.3294L44.2896 21.6794L45.9097 22.4094ZM36.5797 33.4094C36.8697 27.2394 38.2797 22.9694 39.4597 21.6094L39.9896 20.9994L40.5197 21.6094C41.6997 22.9694 43.1097 27.2394 43.3997 33.4094V34.1394H36.5096L36.5797 33.4094ZM43.4396 37.4094V38.1394C43.1596 44.3594 41.7496 48.6594 40.5596 50.0294L40.0296 50.6394L39.4996 50.0294C38.3096 48.6594 36.8996 44.3594 36.6096 38.1394V37.4094H43.4396ZM25.5596 33.3094C25.963 30.9257 26.9517 28.6793 28.4369 26.7717C29.9221 24.8641 31.8576 23.3549 34.0696 22.3794L35.7196 21.6494L34.9996 23.2994C34.926 23.4619 34.8625 23.6289 34.8096 23.7994C33.8945 26.9383 33.3837 30.1812 33.2896 33.4494V34.1194H25.4496L25.5596 33.3094Z" fill="black"/>
<path fill-rule="evenodd" clip-rule="evenodd" d="M19.3694 57.5786C17.2505 58.7914 14.7747 59.2265 12.3694 58.8086C10.0804 58.1961 8.06713 56.8246 6.65934 54.9186C5.90422 53.968 5.25379 52.9387 4.71934 51.8486C4.57341 51.5243 4.53545 51.1618 4.61107 50.8143C4.68668 50.4669 4.8719 50.1529 5.13939 49.9186C6.06566 49.1475 7.07132 48.477 8.13939 47.9186C9.81928 47.0077 11.6984 46.5268 13.6094 46.5186H14.6094L14.2394 45.5186C13.8398 44.4466 13.5058 43.3512 13.2394 42.2386L13.0993 41.6586H10.9394C8.4988 41.8357 6.08672 41.0439 4.22606 39.4546C2.36539 37.8654 1.20608 35.6069 0.999372 33.1686C0.77855 31.972 0.691338 30.7545 0.739362 29.5386C0.764948 29.1832 0.904213 28.8456 1.13652 28.5754C1.36882 28.3053 1.68182 28.1171 2.02934 28.0386C3.21986 27.7943 4.43448 27.6869 5.6494 27.7186C7.99709 27.664 10.2968 28.3884 12.1894 29.7786L13.0393 30.4686L13.3094 29.4086C13.6549 28.0675 14.0995 26.7539 14.6394 25.4786L14.9093 24.8486L14.2793 24.5686L13.4594 24.1786C11.184 23.2697 9.35975 21.4987 8.38395 19.2512C7.40816 17.0036 7.3598 14.4616 8.24937 12.1786C8.57922 11.0093 9.03522 9.87932 9.60936 8.80861C9.78668 8.50046 10.0583 8.25738 10.3841 8.11516C10.71 7.97294 11.0728 7.9391 11.4194 8.0186C12.5955 8.33024 13.7353 8.76603 14.8194 9.31861C17.0931 10.2296 18.9156 12.0009 19.891 14.2477C20.8665 16.4945 20.9162 19.0354 20.0293 21.3186C19.7034 22.4813 19.2507 23.6047 18.6794 24.6686C16.9007 27.92 15.918 31.5467 15.8118 35.2512C15.7056 38.9558 16.479 42.6328 18.0686 45.9807C19.6581 49.3287 22.0186 52.2522 24.9563 54.5115C27.8941 56.7709 31.3256 58.3017 34.9693 58.9786C35.3601 59.0529 35.7109 59.2658 35.9571 59.5782C36.2033 59.8905 36.3284 60.2813 36.3094 60.6786C36.2319 61.8898 36.0137 63.0878 35.6593 64.2486C35.1824 66.6499 33.7778 68.7663 31.7503 70.1386C29.7228 71.5109 27.236 72.0283 24.8294 71.5786C23.6158 71.4695 22.4184 71.2246 21.2594 70.8486C20.9245 70.7323 20.6363 70.5106 20.438 70.2168C20.2397 69.9229 20.1419 69.5727 20.1593 69.2186C20.2439 68.005 20.4619 66.8044 20.8094 65.6386C21.3965 63.284 22.7774 61.2038 24.7193 59.7486L25.8194 59.0586L24.8794 58.4686C23.9214 57.8607 23.0029 57.1927 22.1294 56.4686L21.7294 56.1286L21.2894 56.4286C20.6751 56.8535 20.0338 57.2376 19.3694 57.5786ZM31.9994 61.6786C30.3894 61.4886 28.1393 61.3986 26.5293 62.4886H26.5594C24.9294 63.5886 24.1294 65.7486 23.7294 67.3286L23.5494 68.0686L24.2994 68.1886C24.9285 68.2823 25.5634 68.3324 26.1994 68.3386C27.4887 68.3942 28.7656 68.0672 29.8694 67.3986C31.4894 66.3086 32.2894 64.1486 32.6694 62.5386L32.7594 61.8586L32.0993 61.6786H31.9994ZM11.2294 38.3786H11.7694L12.5293 38.3686L12.4394 37.6186C12.1894 35.9686 11.6394 33.7186 10.1894 32.4486C8.73937 31.1786 6.39936 31.0386 4.73936 31.0386H3.97935L4.06938 31.7886C4.26938 33.4386 4.81938 35.6686 6.31938 36.9586C7.74663 37.9772 9.47874 38.4781 11.2294 38.3786ZM11.6094 12.3286C11.0594 13.8986 10.5794 16.1386 11.3694 17.9586C12.1794 19.7686 14.1594 20.9086 15.6794 21.5986L16.3694 21.9086L16.5893 21.1986C17.1393 19.6386 17.6094 17.3886 16.8294 15.5786C16.0494 13.7686 14.0694 12.5886 12.5494 11.9186L11.8594 11.6086L11.6094 12.3286ZM14.3393 49.7686C12.4193 49.3486 10.3094 50.2686 8.86937 51.1086L8.23936 51.4886L8.66935 52.1086C9.62935 53.4686 11.1593 55.1786 13.0893 55.5986C13.4185 55.6654 13.7535 55.6989 14.0893 55.6986C15.6699 55.6068 17.2012 55.1147 18.5394 54.2686L19.1994 53.8786L18.7594 53.2586C17.8094 51.8986 16.2593 50.1886 14.3393 49.7686Z" fill="black"/>
</svg>
