<svg viewBox="0 0 80 80" fill="none" xmlns="http://www.w3.org/2000/svg">
<path d="M69.5309 38.4773H10.7304V15.3455C10.736 13.3 11.4749 11.3243 12.813 9.77726C14.1511 8.2302 15.9998 7.21436 18.0231 6.91417C20.0465 6.61399 22.1104 7.04938 23.84 8.1413C25.5697 9.23322 26.8504 10.9092 27.4496 12.865L27.8437 14.1437L26.5361 14.4417C24.1307 14.992 21.9843 16.3448 20.45 18.2774C18.9158 20.2101 18.0851 22.6075 18.0948 25.075C18.0973 25.3879 18.2228 25.6872 18.444 25.9085C18.6652 26.1297 18.9646 26.2551 19.2775 26.2576H38.727C39.0399 26.2551 39.3392 26.1297 39.5604 25.9085C39.7816 25.6872 39.9071 25.3879 39.9096 25.075C39.9101 22.5275 39.0192 20.0601 37.3915 18.1005C35.7637 16.1408 33.5015 14.8124 30.9972 14.3456L30.1511 14.1918L29.9972 13.3457C29.4902 10.6801 28.0083 8.29903 25.8405 6.66704C23.6728 5.03505 20.9747 4.26924 18.2729 4.51901C15.571 4.76878 13.059 6.01623 11.2272 8.01796C9.39538 10.0197 8.37503 12.6321 8.36525 15.3455V38.535L7.52881 38.8234C6.34996 39.2404 5.32933 40.0125 4.60746 41.0335C3.88559 42.0545 3.49805 43.2742 3.49805 44.5246C3.49805 45.775 3.88559 46.9947 4.60746 48.0157C5.32933 49.0367 6.34996 49.8089 7.52881 50.2258L8.36525 50.5239V55.879C8.37809 58.8613 9.23086 61.7797 10.8258 64.2997C12.4208 66.8197 14.6935 68.8394 17.3834 70.1273L18.0948 70.4638V75.2901C18.0948 75.6038 18.2195 75.9046 18.4413 76.1263C18.6631 76.3481 18.9639 76.4727 19.2775 76.4727C19.5911 76.4727 19.8919 76.3481 20.1137 76.1263C20.3355 75.9046 20.46 75.6038 20.46 75.2901V71.2425L21.8829 71.4444C22.6308 71.5562 23.386 71.6109 24.1422 71.6079H54.9077C55.6767 71.6129 56.445 71.5583 57.2055 71.4444L58.638 71.2425V75.2901C58.638 75.6038 58.7626 75.9046 58.9844 76.1263C59.2062 76.3481 59.5069 76.4727 59.8206 76.4727C60.1342 76.4727 60.435 76.3481 60.6568 76.1263C60.8785 75.9046 61.0031 75.6038 61.0031 75.2901V70.483L61.7146 70.1465C64.402 68.8563 66.6721 66.8359 68.2652 64.3162C69.8583 61.7965 70.7101 58.8793 70.7232 55.8982V50.5431L71.5596 50.2451C72.9047 49.7694 74.0382 48.8334 74.7598 47.6027C75.4815 46.3719 75.7447 44.9257 75.5031 43.5196C75.2614 42.1136 74.5304 40.8382 73.4393 39.919C72.3482 38.9998 70.9672 38.4959 69.5405 38.4965L69.5309 38.4773ZM37.0638 22.2196L37.6502 23.8925H20.3446L20.9407 22.2196C21.5305 20.5543 22.6219 19.1126 24.0646 18.093C25.5074 17.0733 27.2307 16.5259 28.9974 16.5259C30.7642 16.5259 32.4875 17.0733 33.9303 18.093C35.373 19.1126 36.4644 20.5543 37.0542 22.2196H37.0638ZM68.3484 55.8694C68.3332 59.4192 66.9164 62.8193 64.4062 65.3295C61.8961 67.8396 58.496 69.2564 54.9462 69.2716H24.1807C20.6292 69.259 17.2267 67.8432 14.7145 65.3328C12.2023 62.8224 10.784 59.4209 10.7688 55.8694V50.5624H68.3869L68.3484 55.8694ZM69.5309 48.178H9.54789C8.5713 48.178 7.63468 47.7901 6.94412 47.0995C6.25357 46.409 5.86557 45.4724 5.86557 44.4958C5.86557 43.5192 6.25357 42.5826 6.94412 41.892C7.63468 41.2015 8.5713 40.8135 9.54789 40.8135H69.5309C70.5075 40.8135 71.4441 41.2015 72.1347 41.892C72.8252 42.5826 73.2132 43.5192 73.2132 44.4958C73.2132 45.4724 72.8252 46.409 72.1347 47.0995C71.4441 47.7901 70.5075 48.178 69.5309 48.178Z" fill="black"/>
</svg>
