<svg width="80" height="80" viewBox="0 0 80 80" fill="none" xmlns="http://www.w3.org/2000/svg">
<path d="M38.396 24.0332C38.816 24.2731 39.2878 24.4079 39.7711 24.426C41.2653 24.4247 42.7118 24.952 43.8547 25.9146C44.9976 26.8772 45.7629 28.213 46.0156 29.6858C46.2682 31.1585 45.9918 32.6731 45.2351 33.9616C44.4784 35.25 43.2903 36.2293 41.8811 36.726L41.4111 36.896V40.136C41.3788 40.5501 41.1914 40.9369 40.8864 41.2189C40.5815 41.501 40.1815 41.6577 39.7661 41.6577C39.3507 41.6577 38.9505 41.501 38.6456 41.2189C38.3407 40.9369 38.1534 40.5501 38.1211 40.136V36.896L37.6611 36.726C36.7671 36.4182 35.9559 35.9083 35.291 35.236C34.9826 34.9267 34.8095 34.5078 34.8095 34.071C34.8095 33.6343 34.9826 33.2153 35.291 32.906C35.4433 32.7538 35.6243 32.633 35.8233 32.5506C36.0224 32.4683 36.2356 32.4259 36.451 32.426C36.8891 32.4254 37.3097 32.5979 37.6211 32.906C37.9013 33.1919 38.2358 33.4188 38.6051 33.5733C38.9743 33.7279 39.3708 33.807 39.7711 33.806C40.5787 33.806 41.3531 33.4852 41.9242 32.9142C42.4952 32.3431 42.816 31.5686 42.816 30.761C42.816 29.9534 42.4952 29.1789 41.9242 28.6079C41.3531 28.0368 40.5787 27.716 39.7711 27.716C38.2795 27.7104 36.8376 27.179 35.6991 26.2153C34.5605 25.2516 33.7982 23.9173 33.5462 22.4472C33.2942 20.977 33.5686 19.465 34.3212 18.1772C35.0739 16.8893 36.2565 15.9081 37.6611 15.406L38.1211 15.246V12.006C38.1534 11.5919 38.3407 11.2052 38.6456 10.9231C38.9505 10.6411 39.3507 10.4844 39.7661 10.4844C40.1815 10.4844 40.5815 10.6411 40.8864 10.9231C41.1914 11.2052 41.3788 11.5919 41.4111 12.006V15.246L41.8811 15.406C42.7708 15.7217 43.5775 16.2345 44.2411 16.906C44.3959 17.0569 44.5189 17.2373 44.6029 17.4366C44.6869 17.6358 44.7302 17.8498 44.7302 18.066C44.7302 18.2822 44.6869 18.4963 44.6029 18.6955C44.5189 18.8947 44.3959 19.0751 44.2411 19.226C43.9297 19.5266 43.5138 19.6946 43.081 19.6946C42.6482 19.6946 42.2323 19.5266 41.921 19.226C41.566 18.8976 41.1369 18.6598 40.6701 18.533C40.2034 18.4063 39.7128 18.3942 39.2404 18.4979C38.768 18.6016 38.3277 18.818 37.957 19.1286C37.5863 19.4392 37.2961 19.8349 37.1113 20.2819C36.9265 20.7288 36.8526 21.2138 36.8957 21.6956C36.9388 22.1773 37.0977 22.6415 37.359 23.0485C37.6202 23.4555 37.976 23.7934 38.396 24.0332Z" fill="black"/>
<path fill-rule="evenodd" clip-rule="evenodd" d="M44.46 79.4361H35.08C28.4096 79.407 22.0232 76.7334 17.3215 72.0017C12.6198 67.27 9.98675 60.8666 10.0001 54.1961C10.0001 53.9808 10.0424 53.7675 10.1248 53.5686C10.2072 53.3696 10.3281 53.1888 10.4804 53.0365C10.6327 52.8842 10.8134 52.7634 11.0124 52.681C11.2114 52.5986 11.4247 52.5561 11.6401 52.5561H16.33C20.3616 52.566 24.3314 53.5472 27.9034 55.4167C31.4753 57.2863 34.5442 59.989 36.85 63.2962L38.12 65.1161V51.1161L37.49 51.0561C31.0627 50.4694 25.109 47.4275 20.8672 42.563C16.6255 37.6986 14.4223 31.3862 14.716 24.9388C15.0097 18.4914 17.7775 12.4055 22.4439 7.94678C27.1103 3.4881 33.316 1 39.7701 1C46.2241 1 52.4297 3.4881 57.0961 7.94678C61.7625 12.4055 64.5304 18.4914 64.824 24.9388C65.1177 31.3862 62.9145 37.6986 58.6728 42.563C54.4311 47.4275 48.4773 50.4694 42.05 51.0561L41.4101 51.1161V65.1161L42.69 63.2962C44.994 59.9872 48.0625 57.2831 51.6348 55.4134C55.2072 53.5436 59.1779 52.5635 63.21 52.5561H67.8901C68.1063 52.5548 68.3205 52.5963 68.5207 52.6781C68.7208 52.7599 68.9029 52.8805 69.0562 53.0329C69.2096 53.1854 69.3312 53.3666 69.4142 53.5662C69.4973 53.7659 69.54 53.9799 69.54 54.1961C69.5533 60.8666 66.9204 67.27 62.2187 72.0017C57.517 76.7334 51.1304 79.407 44.46 79.4361ZM48.6308 61.4438C44.6305 65.0508 42.105 70.0095 41.54 75.3661L41.47 76.1461H44.47C49.8568 76.1359 55.0495 74.1333 59.0484 70.524C63.0473 66.9147 65.5697 61.9538 66.1301 56.5962L66.21 55.8261H63.21C57.8236 55.8359 52.6311 57.8367 48.6308 61.4438ZM21.644 13.9547C19.2486 17.5397 17.97 21.7545 17.97 26.0661C17.9963 31.8398 20.3016 37.3694 24.3842 41.452C28.4668 45.5346 33.9965 47.8398 39.7701 47.8661C44.0817 47.8661 48.2964 46.5876 51.8814 44.1922C55.4664 41.7968 58.2606 38.3921 59.9106 34.4086C61.5606 30.4252 61.9923 26.042 61.1512 21.8132C60.31 17.5844 58.2338 13.7 55.185 10.6512C52.1362 7.60244 48.2518 5.52619 44.023 4.68503C39.7942 3.84387 35.411 4.27558 31.4275 5.92558C27.4441 7.57557 24.0394 10.3697 21.644 13.9547ZM16.33 55.8361H13.33L13.42 56.6161C13.985 61.9701 16.5095 66.9263 20.5079 70.5315C24.5063 74.1367 29.6963 76.1364 35.08 76.1461H38.08L37.99 75.3661C37.4272 70.0113 34.9033 65.0539 30.9045 61.4483C26.9056 57.8427 21.7144 55.8437 16.33 55.8361Z" fill="black"/>
</svg>
