<svg width="80" height="80" viewBox="0 0 80 80" fill="none" xmlns="http://www.w3.org/2000/svg">
<path fill-rule="evenodd" clip-rule="evenodd" d="M26.8019 4.98695C30.7134 2.40278 35.2943 1.0171 39.9823 1.00002C44.6785 1.01353 49.2681 2.40112 53.1853 4.99176C57.104 7.58343 60.1782 11.2657 62.0285 15.5842C63.8788 19.9027 64.4243 24.6684 63.5977 29.2933C62.771 33.9182 60.6084 38.1999 57.3766 41.61C53.8173 45.377 51.8412 50.3675 51.8566 55.55C51.8566 55.9859 51.6842 56.4041 51.3769 56.7132C51.0696 57.0224 50.6525 57.1974 50.2166 57.2H29.7566C29.54 57.2 29.3254 57.1573 29.1252 57.0744C28.925 56.9915 28.7431 56.8699 28.5899 56.7167C28.4367 56.5635 28.3152 56.3816 28.2322 56.1814C28.1493 55.9813 28.1066 55.7667 28.1066 55.55C28.0988 50.3427 26.1028 45.335 22.5266 41.55C19.3159 38.1321 17.1734 33.8507 16.3626 29.2319C15.5517 24.613 16.1077 19.8579 17.9623 15.5507C19.8169 11.2436 22.8892 7.57193 26.8019 4.98695ZM48.6666 53.28C49.1463 48.0609 51.3731 43.1563 54.9866 39.36H54.9966C58.6683 35.4971 60.7129 30.3695 60.7066 25.04C60.7201 20.9358 59.5102 16.9206 57.2314 13.5071C54.9526 10.0936 51.7084 7.43655 47.9127 5.87515C44.1171 4.31375 39.9422 3.91883 35.9211 4.7408C31.9 5.56277 28.2151 7.56434 25.3366 10.49C21.5548 14.3035 19.4006 19.436 19.3279 24.8063C19.2552 30.1765 21.2695 35.3654 24.9466 39.28C28.5738 43.1044 30.8163 48.0329 31.3166 53.28L31.3766 53.91H48.6066L48.6666 53.28Z" fill="black"/>
<path d="M39.9823 1.00002L39.9866 1H39.9766L39.9823 1.00002Z" fill="black"/>
<path d="M28.9739 61.9035C29.256 61.5986 29.6427 61.4112 30.0568 61.3789H49.9068C50.3209 61.4112 50.7076 61.5986 50.9897 61.9035C51.2718 62.2084 51.4285 62.6085 51.4285 63.0239C51.4285 63.4393 51.2718 63.8394 50.9897 64.1443C50.7076 64.4493 50.3209 64.6366 49.9068 64.6689H30.0568C29.6427 64.6366 29.256 64.4493 28.9739 64.1443C28.6918 63.8394 28.5352 63.4393 28.5352 63.0239C28.5352 62.6085 28.6918 62.2084 28.9739 61.9035Z" fill="black"/>
<path d="M30.056 68.8516C29.6211 68.8516 29.2039 69.0244 28.8964 69.3319C28.5888 69.6395 28.416 70.0566 28.416 70.4916C28.416 70.9265 28.5888 71.3437 28.8964 71.6512C29.2039 71.9588 29.6211 72.1316 30.056 72.1316H49.906C50.341 72.1316 50.7581 71.9588 51.0657 71.6512C51.3732 71.3437 51.546 70.9265 51.546 70.4916C51.546 70.0566 51.3732 69.6395 51.0657 69.3319C50.7581 69.0244 50.341 68.8516 49.906 68.8516H30.056Z" fill="black"/>
<path d="M32.6223 76.8371C32.9044 76.5321 33.2911 76.3448 33.7052 76.3125H46.2552C46.6694 76.3448 47.0561 76.5321 47.3382 76.8371C47.6202 77.142 47.7769 77.5421 47.7769 77.9575C47.7769 78.3729 47.6202 78.773 47.3382 79.0779C47.0561 79.3828 46.6694 79.5702 46.2552 79.6025H33.7052C33.2911 79.5702 32.9044 79.3828 32.6223 79.0779C32.3403 78.773 32.1836 78.3729 32.1836 77.9575C32.1836 77.5421 32.3403 77.142 32.6223 76.8371Z" fill="black"/>
</svg>
