<svg viewBox="0 0 80 80" fill="none" xmlns="http://www.w3.org/2000/svg">
<path fill-rule="evenodd" clip-rule="evenodd" d="M68.8 4H11.2C7.24 4 4 7.24 4 11.2V68.8C4 72.76 7.24 76 11.2 76H68.8C72.76 76 76 72.76 76 68.8V11.2C76 7.24 72.76 4 68.8 4ZM40.0028 25.6028C47.9228 25.6028 54.4028 32.0828 54.4028 40.0028C54.4028 47.9228 47.9228 54.4028 40.0028 54.4028C32.0828 54.4028 25.6028 47.9228 25.6028 40.0028C25.6028 32.0828 32.0828 25.6028 40.0028 25.6028ZM13.0056 68.7972C11.9256 68.7972 11.2056 68.0772 11.2056 66.9972V36.3972H18.7656C18.4056 37.4772 18.4056 38.9172 18.4056 39.9972C18.4056 51.8772 28.1256 61.5972 40.0056 61.5972C51.8856 61.5972 61.6056 51.8772 61.6056 39.9972C61.6056 38.9172 61.6056 37.4772 61.2456 36.3972H68.8056V66.9972C68.8056 68.0772 68.0856 68.7972 67.0056 68.7972H13.0056ZM68.8 20.2056C68.8 21.2856 68.08 22.0056 67 22.0056H59.8C58.72 22.0056 58 21.2856 58 20.2056V13.0056C58 11.9256 58.72 11.2056 59.8 11.2056H67C68.08 11.2056 68.8 11.9256 68.8 13.0056V20.2056Z" fill="black"/>
</svg>
